{
  "/mix.js": "/mix.js",
  "/css/app.css": "/css/app.css",
  "/admin_assets/css/app.css": "/admin_assets/css/app.css",
  "/js/app.js": "/js/app.js",
  "/admin_assets/js/libs.js": "/admin_assets/js/libs.js"
}